module gitlab.com/hlf-mipt/basic-asset-chaincode-go

go 1.21

toolchain go1.21.4

require (
	github.com/hyperledger/fabric-chaincode-go v0.0.0-20230228194215-b84622ba6a7a
	github.com/hyperledger/fabric-contract-api-go v1.2.1
	github.com/hyperledger/fabric-protos-go v0.3.0
	github.com/sirupsen/logrus v1.4.2
	gitlab.com/hlf-mipt/basic-asset-core v0.0.0-20240411150148-a3686fd85ef9
	go.uber.org/fx v1.21.0
	google.golang.org/protobuf v1.28.1
)

require (
	github.com/go-openapi/jsonpointer v0.19.5 // indirect
	github.com/go-openapi/jsonreference v0.20.0 // indirect
	github.com/go-openapi/spec v0.20.8 // indirect
	github.com/go-openapi/swag v0.21.1 // indirect
	github.com/gobuffalo/envy v1.10.1 // indirect
	github.com/gobuffalo/packd v1.0.1 // indirect
	github.com/gobuffalo/packr v1.30.1 // indirect
	github.com/golang/protobuf v1.5.2 // indirect
	github.com/joho/godotenv v1.4.0 // indirect
	github.com/josharian/intern v1.0.0 // indirect
	github.com/konsorten/go-windows-terminal-sequences v1.0.2 // indirect
	github.com/mailru/easyjson v0.7.7 // indirect
	github.com/rogpeppe/go-internal v1.8.1 // indirect
	github.com/xeipuuv/gojsonpointer v0.0.0-20190905194746-02993c407bfb // indirect
	github.com/xeipuuv/gojsonreference v0.0.0-20180127040603-bd5ef7bd5415 // indirect
	github.com/xeipuuv/gojsonschema v1.2.0 // indirect
	go.uber.org/dig v1.17.1 // indirect
	go.uber.org/multierr v1.10.0 // indirect
	go.uber.org/zap v1.26.0 // indirect
	golang.org/x/net v0.7.0 // indirect
	golang.org/x/sys v0.5.0 // indirect
	golang.org/x/text v0.7.0 // indirect
	google.golang.org/genproto v0.0.0-20230110181048-76db0878b65f // indirect
	google.golang.org/grpc v1.53.0 // indirect
	gopkg.in/yaml.v2 v2.4.0 // indirect
)
